…
6 - Select the best model

``` r
res %>% show_best("rmse", metric = "rmse")
```

    ## # A tibble: 1,001 x 7
    ##    penalty .metric .estimator  mean     n std_err .config                
    ##      <dbl> <chr>   <chr>      <dbl> <int>   <dbl> <chr>                  
    ##  1  0.0044 rmse    standard   0.142    10  0.0113 Preprocessor1_Model0045
    ##  2  0.0047 rmse    standard   0.142    10  0.0113 Preprocessor1_Model0048
    ##  3  0.0045 rmse    standard   0.142    10  0.0113 Preprocessor1_Model0046
    ##  4  0.0046 rmse    standard   0.142    10  0.0113 Preprocessor1_Model0047
    ##  5  0.0048 rmse    standard   0.142    10  0.0113 Preprocessor1_Model0049
    ##  6  0.0043 rmse    standard   0.142    10  0.0114 Preprocessor1_Model0044
    ##  7  0.0049 rmse    standard   0.142    10  0.0113 Preprocessor1_Model0050
    ##  8  0.0042 rmse    standard   0.142    10  0.0114 Preprocessor1_Model0043
    ##  9  0.005  rmse    standard   0.142    10  0.0113 Preprocessor1_Model0051
    ## 10  0.0041 rmse    standard   0.142    10  0.0114 Preprocessor1_Model0042
    ## # ... with 991 more rows
…
